[
    "../sprites/banana.png",
    "../sprites/dragon.png",
    "../sprites/elephant.png",
    "../sprites/fiendproj.png",
    "../sprites/fox.png",
    "../sprites/gfiend.png",
    "../sprites/monkey.png",
    "../sprites/player.png",
    "../sprites/rat.png",
    "../sprites/slime.png",
    "../sprites/wolf.png"
]